%!PS-Adobe-3.0 EPSF-3.0 
%%BoundingBox: 0 0 468 266
%%Pages: 0
%%Creator: LibreOffice 4.2
%%Title: none
%%CreationDate: none
%%LanguageLevel: 2
%%EndComments
%%BeginProlog
%%BeginResource: procset SDRes-Prolog 1.0 0
/b4_inc_state save def
/dict_count countdictstack def
/op_count count 1 sub def
userdict begin
0 setgray 0 setlinecap 1 setlinewidth 0 setlinejoin 10 setmiterlimit[] 0 setdash newpath
/languagelevel where {pop languagelevel 1 ne {false setstrokeadjust false setoverprint} if} if
/bdef {bind def} bind def
/c {setrgbcolor} bdef
/l {neg lineto} bdef
/rl {neg rlineto} bdef
/lc {setlinecap} bdef
/lj {setlinejoin} bdef
/lw {setlinewidth} bdef
/ml {setmiterlimit} bdef
/ld {setdash} bdef
/m {neg moveto} bdef
/ct {6 2 roll neg 6 2 roll neg 6 2 roll neg curveto} bdef
/r {rotate} bdef
/t {neg translate} bdef
/s {scale} bdef
/sw {show} bdef
/gs {gsave} bdef
/gr {grestore} bdef
/f {findfont dup length dict begin
{1 index /FID ne {def} {pop pop} ifelse} forall /Encoding ISOLatin1Encoding def
currentdict end /NFont exch definefont pop /NFont findfont} bdef
/p {closepath} bdef
/sf {scalefont setfont} bdef
/ef {eofill}bdef
/pc {closepath stroke}bdef
/ps {stroke}bdef
/pum {matrix currentmatrix}bdef
/pom {setmatrix}bdef
/bs {/aString exch def /nXOfs exch def /nWidth exch def currentpoint nXOfs 0 rmoveto pum nWidth aString stringwidth pop div 1 scale aString show pom moveto} bdef
%%EndResource
%%EndProlog
%%BeginSetup
%%EndSetup
%%Page: 1 1
%%BeginPageSetup
%%EndPageSetup
pum
0.02834 0.0283 s 
0 -9398 t
/tm matrix currentmatrix def
gs
0 0 m 16509 0 l 16509 9397 l 0 9397 l 0 0 l eoclip newpath
gs
0 0 m 16509 0 l 16509 9397 l 0 9397 l 0 0 l eoclip newpath
0 lw 1 lj 0.703 0.703 0.703 c 7062 7273 m  2164 7273 l  2164 1151 l  11959 1151 l 
11959 7273 l  7062 7273 l  pc
2164 7422 m  2164 7272 l  ps
2164 7422 m  2164 7272 l  ps
4613 7422 m  4613 7272 l  ps
4613 7422 m  4613 7272 l  ps
7062 7422 m  7062 7272 l  ps
7062 7422 m  7062 7272 l  ps
9510 7422 m  9510 7272 l  ps
9510 7422 m  9510 7272 l  ps
11959 7422 m  11959 7272 l  ps
11959 7422 m  11959 7272 l  ps
2164 7272 m  11959 7272 l  ps
2014 7272 m  2164 7272 l  ps
2014 7272 m  2164 7272 l  ps
2014 6251 m  2164 6251 l  ps
2014 6251 m  2164 6251 l  ps
2014 5231 m  2164 5231 l  ps
2014 5231 m  2164 5231 l  ps
2014 4211 m  2164 4211 l  ps
2014 4211 m  2164 4211 l  ps
2014 3190 m  2164 3190 l  ps
2014 3190 m  2164 3190 l  ps
2014 2170 m  2164 2170 l  ps
2014 2170 m  2164 2170 l  ps
2014 1149 m  2164 1149 l  ps
2014 1149 m  2164 1149 l  ps
2164 7272 m  2164 1150 l  ps
79.99499 lw 0.003 0.273 0.527 c 2164 2170 m  4613 3956 l  7062 5231 l  9510 5741 l 
11959 6149 l  ps
2039 2045 m  2039 2295 l  2289 2295 l  2289 2045 l  2039 2045 l  p ef
0 lw 2039 2045 m  2039 2295 l  2289 2295 l  2289 2045 l  2039 2045 l  pc
4488 3831 m  4488 4081 l  4738 4081 l  4738 3831 l  4488 3831 l  p ef
4488 3831 m  4488 4081 l  4738 4081 l  4738 3831 l  4488 3831 l  pc
6937 5106 m  6937 5356 l  7187 5356 l  7187 5106 l  6937 5106 l  p ef
6937 5106 m  6937 5356 l  7187 5356 l  7187 5106 l  6937 5106 l  pc
9385 5616 m  9385 5866 l  9635 5866 l  9635 5616 l  9385 5616 l  p ef
9385 5616 m  9385 5866 l  9635 5866 l  9635 5616 l  9385 5616 l  pc
11834 6024 m  11834 6274 l  12084 6274 l  12084 6024 l  11834 6024 l  p ef
11834 6024 m  11834 6274 l  12084 6274 l  12084 6024 l  11834 6024 l  pc
79.99499 lw 1.000 0.261 0.058 c 2164 2170 m  4613 3088 l  7062 3701 l  9510 4109 l 
11959 4262 l  ps
2039 2170 m  2164 2295 l  2289 2170 l  2164 2045 l  2039 2170 l  p ef
0 lw 2039 2170 m  2164 2295 l  2289 2170 l  2164 2045 l  2039 2170 l  pc
4488 3088 m  4613 3213 l  4738 3088 l  4613 2963 l  4488 3088 l  p ef
4488 3088 m  4613 3213 l  4738 3088 l  4613 2963 l  4488 3088 l  pc
6937 3701 m  7062 3826 l  7187 3701 l  7062 3576 l  6937 3701 l  p ef
6937 3701 m  7062 3826 l  7187 3701 l  7062 3576 l  6937 3701 l  pc
9385 4109 m  9510 4234 l  9635 4109 l  9510 3984 l  9385 4109 l  p ef
9385 4109 m  9510 4234 l  9635 4109 l  9510 3984 l  9385 4109 l  pc
11834 4262 m  11959 4387 l  12084 4262 l  11959 4137 l  11834 4262 l  p ef
11834 4262 m  11959 4387 l  12084 4262 l  11959 4137 l  11834 4262 l  pc
79.99499 lw 1.000 0.828 0.128 c 2164 2170 m  4613 2629 l  7062 2935 l 
9510 3139 l  11959 3242 l  ps
2039 2045 m  2164 2295 l  2289 2045 l  2039 2045 l  p ef
0 lw 2039 2045 m  2164 2295 l  2289 2045 l  2039 2045 l  pc
4488 2504 m  4613 2754 l  4738 2504 l  4488 2504 l  p ef
4488 2504 m  4613 2754 l  4738 2504 l  4488 2504 l  pc
6937 2810 m  7062 3060 l  7187 2810 l  6937 2810 l  p ef
6937 2810 m  7062 3060 l  7187 2810 l  6937 2810 l  pc
9385 3014 m  9510 3264 l  9635 3014 l  9385 3014 l  p ef
9385 3014 m  9510 3264 l  9635 3014 l  9385 3014 l  pc
11834 3117 m  11959 3367 l  12084 3117 l  11834 3117 l  p ef
11834 3117 m  11959 3367 l  12084 3117 l  11834 3117 l  pc
pum
2060 7845 t
0.003 0.003 0.003 c 27 0 m  27 -26 l  89 -26 l  89 -213 l  34 -174 l  34 -203 l 
91 -243 l  120 -243 l  120 -26 l  179 -26 l  179 0 l  p ef
pom
pum
4509 7845 t
18 0 m  18 -22 l  24 -35 31 -47 39 -57 ct 48 -68 57 -77 66 -85 ct 75 -94 84 -101 94 -109 ct 
103 -116 111 -123 118 -130 ct 126 -137 132 -145 136 -152 ct 141 -160 143 -169 143 -179 ct 
143 -192 139 -203 131 -210 ct 123 -217 112 -221 99 -221 ct 85 -221 74 -217 66 -210 ct 
57 -203 52 -193 51 -180 ct 19 -183 l  21 -202 30 -218 44 -229 ct 58 -241 76 -246 99 -246 ct 
123 -246 142 -241 155 -229 ct 168 -218 175 -201 175 -180 ct 175 -171 173 -161 168 -152 ct 
164 -143 158 -133 149 -124 ct 141 -115 124 -100 100 -81 ct 87 -70 77 -60 69 -51 ct 
61 -43 55 -34 52 -26 ct 179 -26 l  179 0 l  p ef
pom
pum
6958 7845 t
152 -55 m  152 0 l  123 0 l  123 -55 l  8 -55 l  8 -79 l  119 -243 l  152 -243 l 
152 -79 l  186 -79 l  186 -55 l  p
123 -208 m  122 -207 121 -204 118 -199 ct 115 -193 112 -190 111 -187 ct 49 -96 l 
39 -83 l  37 -79 l  123 -79 l  p ef
pom
pum
9407 7845 t
181 -68 m  181 -45 174 -28 160 -15 ct 145 -3 125 3 98 3 ct 72 3 52 -3 37 -15 ct 
23 -27 15 -45 15 -67 ct 15 -83 20 -97 29 -107 ct 38 -118 50 -125 64 -127 ct 64 -128 l 
51 -131 40 -138 32 -148 ct 25 -158 21 -170 21 -184 ct 21 -203 28 -218 42 -229 ct 
56 -241 74 -246 98 -246 ct 121 -246 140 -241 154 -230 ct 168 -218 175 -203 175 -184 ct 
175 -170 171 -158 163 -148 ct 156 -137 145 -131 132 -128 ct 132 -127 l  147 -125 159 -118 168 -108 ct 
177 -97 181 -84 181 -68 ct p
143 -182 m  143 -210 128 -223 98 -223 ct 83 -223 72 -220 64 -213 ct 57 -206 53 -196 53 -182 ct 
53 -168 57 -158 65 -150 ct 72 -143 84 -139 98 -139 ct 112 -139 124 -143 131 -150 ct 
139 -156 143 -167 143 -182 ct p
149 -71 m  149 -86 144 -97 135 -105 ct 126 -112 114 -116 98 -116 ct 82 -116 70 -112 61 -104 ct 
52 -96 47 -84 47 -70 ct 47 -37 64 -20 99 -20 ct 115 -20 128 -24 136 -32 ct 145 -40 149 -53 149 -71 ct 
p ef
pom
pum
11763 7845 t
27 0 m  27 -26 l  89 -26 l  89 -213 l  34 -174 l  34 -203 l  91 -243 l 
120 -243 l  120 -26 l  179 -26 l  179 0 l  p ef
377 -79 m  377 -54 370 -34 356 -19 ct 342 -4 323 3 298 3 ct 271 3 250 -7 236 -27 ct 
221 -47 214 -77 214 -116 ct 214 -158 221 -190 237 -213 ct 252 -235 273 -246 301 -246 ct 
337 -246 361 -230 370 -197 ct 340 -192 l  334 -211 321 -221 300 -221 ct 283 -221 269 -213 259 -197 ct 
250 -180 245 -156 245 -125 ct 250 -135 258 -143 269 -149 ct 279 -154 291 -157 304 -157 ct 
326 -157 344 -150 357 -136 ct 370 -122 377 -103 377 -79 ct p
345 -78 m  345 -96 341 -109 332 -119 ct 324 -128 312 -133 296 -133 ct 282 -133 270 -129 261 -120 ct 
252 -112 248 -100 248 -85 ct 248 -67 253 -51 262 -39 ct 271 -28 283 -22 297 -22 ct 
312 -22 324 -27 333 -37 ct 341 -47 345 -60 345 -78 ct p ef
pom
pum
1706 7400 t
183 -122 m  183 -81 175 -50 161 -29 ct 147 -7 126 3 98 3 ct 70 3 49 -7 35 -28 ct 
21 -50 14 -81 14 -122 ct 14 -163 21 -194 34 -215 ct 48 -236 69 -246 99 -246 ct 
127 -246 148 -236 162 -215 ct 176 -194 183 -163 183 -122 ct p
151 -122 m  151 -157 147 -182 139 -198 ct 131 -213 117 -221 99 -221 ct 80 -221 66 -214 58 -198 ct 
49 -183 45 -157 45 -122 ct 45 -87 49 -62 58 -46 ct 66 -30 80 -22 98 -22 ct 116 -22 130 -30 138 -46 ct 
147 -63 151 -88 151 -122 ct p ef
pom
pum
1429 6379 t
183 -122 m  183 -81 175 -50 161 -29 ct 147 -7 126 3 98 3 ct 70 3 49 -7 35 -28 ct 
21 -50 14 -81 14 -122 ct 14 -163 21 -194 34 -215 ct 48 -236 69 -246 99 -246 ct 
127 -246 148 -236 162 -215 ct 176 -194 183 -163 183 -122 ct p
151 -122 m  151 -157 147 -182 139 -198 ct 131 -213 117 -221 99 -221 ct 80 -221 66 -214 58 -198 ct 
49 -183 45 -157 45 -122 ct 45 -87 49 -62 58 -46 ct 66 -30 80 -22 98 -22 ct 116 -22 130 -30 138 -46 ct 
147 -63 151 -88 151 -122 ct p ef
225 0 m  225 -38 l  259 -38 l  259 0 l  p ef
306 0 m  306 -22 l  312 -35 319 -47 327 -57 ct 336 -68 345 -77 354 -85 ct 363 -94 372 -101 382 -109 ct 
391 -116 399 -123 406 -130 ct 414 -137 420 -145 424 -152 ct 429 -160 431 -169 431 -179 ct 
431 -192 427 -203 419 -210 ct 411 -217 400 -221 387 -221 ct 373 -221 362 -217 354 -210 ct 
345 -203 340 -193 339 -180 ct 307 -183 l  309 -202 318 -218 332 -229 ct 346 -241 364 -246 387 -246 ct 
411 -246 430 -241 443 -229 ct 456 -218 463 -201 463 -180 ct 463 -171 461 -161 456 -152 ct 
452 -143 446 -133 437 -124 ct 429 -115 412 -100 388 -81 ct 375 -70 365 -60 357 -51 ct 
349 -43 343 -34 340 -26 ct 467 -26 l  467 0 l  p ef
pom
pum
1429 5359 t
183 -122 m  183 -81 175 -50 161 -29 ct 147 -7 126 3 98 3 ct 70 3 49 -7 35 -28 ct 
21 -50 14 -81 14 -122 ct 14 -163 21 -194 34 -215 ct 48 -236 69 -246 99 -246 ct 
127 -246 148 -236 162 -215 ct 176 -194 183 -163 183 -122 ct p
151 -122 m  151 -157 147 -182 139 -198 ct 131 -213 117 -221 99 -221 ct 80 -221 66 -214 58 -198 ct 
49 -183 45 -157 45 -122 ct 45 -87 49 -62 58 -46 ct 66 -30 80 -22 98 -22 ct 116 -22 130 -30 138 -46 ct 
147 -63 151 -88 151 -122 ct p ef
225 0 m  225 -38 l  259 -38 l  259 0 l  p ef
440 -55 m  440 0 l  411 0 l  411 -55 l  296 -55 l  296 -79 l  407 -243 l 
440 -243 l  440 -79 l  474 -79 l  474 -55 l  p
411 -208 m  410 -207 409 -204 406 -199 ct 403 -193 400 -190 399 -187 ct 337 -96 l 
327 -83 l  325 -79 l  411 -79 l  p ef
pom
pum
1429 4338 t
183 -122 m  183 -81 175 -50 161 -29 ct 147 -7 126 3 98 3 ct 70 3 49 -7 35 -28 ct 
21 -50 14 -81 14 -122 ct 14 -163 21 -194 34 -215 ct 48 -236 69 -246 99 -246 ct 
127 -246 148 -236 162 -215 ct 176 -194 183 -163 183 -122 ct p
151 -122 m  151 -157 147 -182 139 -198 ct 131 -213 117 -221 99 -221 ct 80 -221 66 -214 58 -198 ct 
49 -183 45 -157 45 -122 ct 45 -87 49 -62 58 -46 ct 66 -30 80 -22 98 -22 ct 116 -22 130 -30 138 -46 ct 
147 -63 151 -88 151 -122 ct p ef
225 0 m  225 -38 l  259 -38 l  259 0 l  p ef
469 -79 m  469 -54 462 -34 448 -19 ct 434 -4 415 3 390 3 ct 363 3 342 -7 328 -27 ct 
313 -47 306 -77 306 -116 ct 306 -158 313 -190 329 -213 ct 344 -235 365 -246 393 -246 ct 
429 -246 453 -230 462 -197 ct 432 -192 l  426 -211 413 -221 392 -221 ct 375 -221 361 -213 351 -197 ct 
342 -180 337 -156 337 -125 ct 342 -135 350 -143 361 -149 ct 371 -154 383 -157 396 -157 ct 
418 -157 436 -150 449 -136 ct 462 -122 469 -103 469 -79 ct p
437 -78 m  437 -96 433 -109 424 -119 ct 416 -128 404 -133 388 -133 ct 374 -133 362 -129 353 -120 ct 
344 -112 340 -100 340 -85 ct 340 -67 345 -51 354 -39 ct 363 -28 375 -22 389 -22 ct 
404 -22 416 -27 425 -37 ct 433 -47 437 -60 437 -78 ct p ef
pom
pum
1429 3317 t
183 -122 m  183 -81 175 -50 161 -29 ct 147 -7 126 3 98 3 ct 70 3 49 -7 35 -28 ct 
21 -50 14 -81 14 -122 ct 14 -163 21 -194 34 -215 ct 48 -236 69 -246 99 -246 ct 
127 -246 148 -236 162 -215 ct 176 -194 183 -163 183 -122 ct p
151 -122 m  151 -157 147 -182 139 -198 ct 131 -213 117 -221 99 -221 ct 80 -221 66 -214 58 -198 ct 
49 -183 45 -157 45 -122 ct 45 -87 49 -62 58 -46 ct 66 -30 80 -22 98 -22 ct 116 -22 130 -30 138 -46 ct 
147 -63 151 -88 151 -122 ct p ef
225 0 m  225 -38 l  259 -38 l  259 0 l  p ef
469 -68 m  469 -45 462 -28 448 -15 ct 433 -3 413 3 386 3 ct 360 3 340 -3 325 -15 ct 
311 -27 303 -45 303 -67 ct 303 -83 308 -97 317 -107 ct 326 -118 338 -125 352 -127 ct 
352 -128 l  339 -131 328 -138 320 -148 ct 313 -158 309 -170 309 -184 ct 309 -203 316 -218 330 -229 ct 
344 -241 362 -246 386 -246 ct 409 -246 428 -241 442 -230 ct 456 -218 463 -203 463 -184 ct 
463 -170 459 -158 451 -148 ct 444 -137 433 -131 420 -128 ct 420 -127 l  435 -125 447 -118 456 -108 ct 
465 -97 469 -84 469 -68 ct p
431 -182 m  431 -210 416 -223 386 -223 ct 371 -223 360 -220 352 -213 ct 345 -206 341 -196 341 -182 ct 
341 -168 345 -158 353 -150 ct 360 -143 372 -139 386 -139 ct 400 -139 412 -143 419 -150 ct 
427 -156 431 -167 431 -182 ct p
437 -71 m  437 -86 432 -97 423 -105 ct 414 -112 402 -116 386 -116 ct 370 -116 358 -112 349 -104 ct 
340 -96 335 -84 335 -70 ct 335 -37 352 -20 387 -20 ct 403 -20 416 -24 424 -32 ct 
433 -40 437 -53 437 -71 ct p ef
pom
pum
1706 2297 t
27 0 m  27 -26 l  89 -26 l  89 -213 l  34 -174 l  34 -203 l  91 -243 l 
120 -243 l  120 -26 l  179 -26 l  179 0 l  p ef
pom
pum
1429 1276 t
27 0 m  27 -26 l  89 -26 l  89 -213 l  34 -174 l  34 -203 l  91 -243 l 
120 -243 l  120 -26 l  179 -26 l  179 0 l  p ef
225 0 m  225 -38 l  259 -38 l  259 0 l  p ef
306 0 m  306 -22 l  312 -35 319 -47 327 -57 ct 336 -68 345 -77 354 -85 ct 363 -94 372 -101 382 -109 ct 
391 -116 399 -123 406 -130 ct 414 -137 420 -145 424 -152 ct 429 -160 431 -169 431 -179 ct 
431 -192 427 -203 419 -210 ct 411 -217 400 -221 387 -221 ct 373 -221 362 -217 354 -210 ct 
345 -203 340 -193 339 -180 ct 307 -183 l  309 -202 318 -218 332 -229 ct 346 -241 364 -246 387 -246 ct 
411 -246 430 -241 443 -229 ct 456 -218 463 -201 463 -180 ct 463 -171 461 -161 456 -152 ct 
452 -143 446 -133 437 -124 ct 429 -115 412 -100 388 -81 ct 375 -70 365 -60 357 -51 ct 
349 -43 343 -34 340 -26 ct 467 -26 l  467 0 l  p ef
pom
79.99499 lw 0.003 0.273 0.527 c 12911 4082 m  13711 4082 l  ps
13205 3977 m  13205 4187 l  13416 4187 l  13416 3977 l  13205 3977 l  p ef
0 lw 13205 3977 m  13205 4187 l  13416 4187 l  13416 3977 l  13205 3977 l 
pc
79.99499 lw 1.000 0.261 0.058 c 12911 4576 m  13711 4576 l  ps
13205 4576 m  13311 4680 l  13416 4576 l  13311 4471 l  13205 4576 l  p ef
0 lw 13205 4576 m  13311 4680 l  13416 4576 l  13311 4471 l  13205 4576 l 
pc
79.99499 lw 1.000 0.828 0.128 c 12911 5069 m  13711 5069 l  ps
13205 4964 m  13311 5174 l  13416 4964 l  13205 4964 l  p ef
0 lw 13205 4964 m  13311 5174 l  13416 4964 l  13205 4964 l  pc
pum
13811 4209 t
0.003 0.003 0.003 c 137 -220 m  110 -220 89 -211 74 -194 ct 59 -176 51 -153 51 -123 ct 
51 -93 59 -69 75 -51 ct 90 -33 111 -24 138 -24 ct 172 -24 197 -40 215 -74 ct 241 -61 l 
231 -40 217 -24 199 -13 ct 181 -2 160 3 136 3 ct 112 3 91 -2 73 -12 ct 55 -22 41 -37 32 -55 ct 
23 -74 18 -97 18 -123 ct 18 -161 28 -192 49 -214 ct 70 -236 99 -246 136 -246 ct 
162 -246 184 -241 201 -231 ct 218 -221 231 -206 239 -186 ct 208 -176 l  202 -190 193 -201 181 -208 ct 
168 -216 154 -220 137 -220 ct p ef
260 -186 m  410 -186 l  410 -164 l  350 -164 l  350 0 l  319 0 l  319 -164 l 
260 -164 l  p ef
597 -94 m  597 -29 575 3 529 3 ct 500 3 481 -7 471 -29 ct 470 -29 l  471 -28 471 -18 471 0 ct 
471 73 l  440 73 l  440 -148 l  440 -168 439 -180 439 -186 ct 469 -186 l 
469 -186 469 -184 469 -182 ct 469 -179 470 -174 470 -169 ct 470 -163 470 -159 470 -157 ct 
471 -157 l  477 -168 484 -176 493 -182 ct 502 -187 514 -190 529 -190 ct 552 -190 569 -182 580 -167 ct 
592 -151 597 -127 597 -94 ct p
565 -93 m  565 -119 561 -138 554 -149 ct 547 -160 536 -166 521 -166 ct 509 -166 499 -163 492 -158 ct 
485 -153 480 -145 476 -134 ct 473 -123 471 -109 471 -91 ct 471 -67 475 -48 483 -37 ct 
490 -25 503 -19 521 -19 ct 536 -19 547 -25 554 -36 ct 561 -48 565 -67 565 -93 ct 
p ef
683 3 m  665 3 651 -1 641 -11 ct 632 -21 627 -35 627 -52 ct 627 -71 633 -86 646 -97 ct 
659 -107 679 -112 707 -113 ct 749 -114 l  749 -124 l  749 -139 746 -150 740 -157 ct 
733 -163 723 -166 709 -166 ct 695 -166 685 -164 679 -159 ct 673 -155 669 -147 668 -137 ct 
635 -140 l  641 -173 665 -190 710 -190 ct 734 -190 751 -185 763 -174 ct 775 -163 781 -148 781 -127 ct 
781 -47 l  781 -38 782 -31 784 -26 ct 787 -21 791 -19 798 -19 ct 801 -19 805 -20 808 -20 ct 
808 -1 l  801 1 793 2 784 2 ct 773 2 765 -1 759 -7 ct 754 -13 751 -23 750 -36 ct 
749 -36 l  741 -21 732 -11 722 -5 ct 711 0 698 3 683 3 ct p
690 -20 m  702 -20 712 -22 721 -28 ct 730 -33 737 -40 742 -49 ct 747 -58 749 -67 749 -77 ct 
749 -92 l  715 -91 l  701 -91 690 -90 682 -87 ct 675 -84 669 -80 665 -74 ct 
661 -68 659 -61 659 -52 ct 659 -41 662 -34 667 -28 ct 673 -23 680 -20 690 -20 ct 
p ef
807 -186 m  957 -186 l  957 -164 l  897 -164 l  897 0 l  866 0 l  866 -164 l 
807 -164 l  p ef
1007 -87 m  1007 -65 1011 -49 1020 -37 ct 1029 -26 1042 -20 1059 -20 ct 1072 -20 1083 -23 1091 -28 ct 
1099 -33 1105 -40 1107 -48 ct 1135 -41 l  1123 -11 1098 3 1059 3 ct 1031 3 1010 -5 996 -21 ct 
981 -38 974 -62 974 -94 ct 974 -125 981 -149 996 -165 ct 1010 -182 1031 -190 1057 -190 ct 
1112 -190 1140 -157 1140 -91 ct 1140 -87 l  p
1108 -110 m  1106 -130 1101 -144 1093 -153 ct 1084 -163 1072 -167 1057 -167 ct 
1042 -167 1030 -162 1021 -152 ct 1012 -142 1008 -128 1007 -110 ct p ef
1273 -186 m  1273 -164 l  1211 -164 l  1211 0 l  1179 0 l  1179 -186 l 
p ef
1338 -186 m  1338 -84 l  1337 -37 l  1423 -186 l  1457 -186 l  1457 0 l 
1427 0 l  1427 -114 l  1427 -118 1427 -124 1428 -133 ct 1428 -141 1428 -147 1429 -150 ct 
1342 0 l  1308 0 l  1308 -186 l  p ef
1573 -79 m  1519 0 l  1484 0 l  1543 -81 l  1515 -87 1500 -105 1500 -135 ct 
1500 -152 1507 -165 1519 -174 ct 1531 -182 1549 -186 1573 -186 ct 1648 -186 l 
1648 0 l  1617 0 l  1617 -79 l  p
1617 -165 m  1576 -165 l  1561 -165 1550 -162 1544 -157 ct 1537 -151 1533 -143 1533 -133 ct 
1533 -122 1536 -114 1542 -109 ct 1549 -103 1559 -100 1573 -100 ct 1617 -100 l 
p ef
1793 0 m  1793 -26 l  1855 -26 l  1855 -213 l  1800 -174 l  1800 -203 l 
1857 -243 l  1886 -243 l  1886 -26 l  1945 -26 l  1945 0 l  p ef
pom
pum
13811 4702 t
137 -220 m  110 -220 89 -211 74 -194 ct 59 -176 51 -153 51 -123 ct 51 -93 59 -69 75 -51 ct 
90 -33 111 -24 138 -24 ct 172 -24 197 -40 215 -74 ct 241 -61 l  231 -40 217 -24 199 -13 ct 
181 -2 160 3 136 3 ct 112 3 91 -2 73 -12 ct 55 -22 41 -37 32 -55 ct 23 -74 18 -97 18 -123 ct 
18 -161 28 -192 49 -214 ct 70 -236 99 -246 136 -246 ct 162 -246 184 -241 201 -231 ct 
218 -221 231 -206 239 -186 ct 208 -176 l  202 -190 193 -201 181 -208 ct 168 -216 154 -220 137 -220 ct 
p ef
260 -186 m  410 -186 l  410 -164 l  350 -164 l  350 0 l  319 0 l  319 -164 l 
260 -164 l  p ef
597 -94 m  597 -29 575 3 529 3 ct 500 3 481 -7 471 -29 ct 470 -29 l  471 -28 471 -18 471 0 ct 
471 73 l  440 73 l  440 -148 l  440 -168 439 -180 439 -186 ct 469 -186 l 
469 -186 469 -184 469 -182 ct 469 -179 470 -174 470 -169 ct 470 -163 470 -159 470 -157 ct 
471 -157 l  477 -168 484 -176 493 -182 ct 502 -187 514 -190 529 -190 ct 552 -190 569 -182 580 -167 ct 
592 -151 597 -127 597 -94 ct p
565 -93 m  565 -119 561 -138 554 -149 ct 547 -160 536 -166 521 -166 ct 509 -166 499 -163 492 -158 ct 
485 -153 480 -145 476 -134 ct 473 -123 471 -109 471 -91 ct 471 -67 475 -48 483 -37 ct 
490 -25 503 -19 521 -19 ct 536 -19 547 -25 554 -36 ct 561 -48 565 -67 565 -93 ct 
p ef
683 3 m  665 3 651 -1 641 -11 ct 632 -21 627 -35 627 -52 ct 627 -71 633 -86 646 -97 ct 
659 -107 679 -112 707 -113 ct 749 -114 l  749 -124 l  749 -139 746 -150 740 -157 ct 
733 -163 723 -166 709 -166 ct 695 -166 685 -164 679 -159 ct 673 -155 669 -147 668 -137 ct 
635 -140 l  641 -173 665 -190 710 -190 ct 734 -190 751 -185 763 -174 ct 775 -163 781 -148 781 -127 ct 
781 -47 l  781 -38 782 -31 784 -26 ct 787 -21 791 -19 798 -19 ct 801 -19 805 -20 808 -20 ct 
808 -1 l  801 1 793 2 784 2 ct 773 2 765 -1 759 -7 ct 754 -13 751 -23 750 -36 ct 
749 -36 l  741 -21 732 -11 722 -5 ct 711 0 698 3 683 3 ct p
690 -20 m  702 -20 712 -22 721 -28 ct 730 -33 737 -40 742 -49 ct 747 -58 749 -67 749 -77 ct 
749 -92 l  715 -91 l  701 -91 690 -90 682 -87 ct 675 -84 669 -80 665 -74 ct 
661 -68 659 -61 659 -52 ct 659 -41 662 -34 667 -28 ct 673 -23 680 -20 690 -20 ct 
p ef
807 -186 m  957 -186 l  957 -164 l  897 -164 l  897 0 l  866 0 l  866 -164 l 
807 -164 l  p ef
1007 -87 m  1007 -65 1011 -49 1020 -37 ct 1029 -26 1042 -20 1059 -20 ct 1072 -20 1083 -23 1091 -28 ct 
1099 -33 1105 -40 1107 -48 ct 1135 -41 l  1123 -11 1098 3 1059 3 ct 1031 3 1010 -5 996 -21 ct 
981 -38 974 -62 974 -94 ct 974 -125 981 -149 996 -165 ct 1010 -182 1031 -190 1057 -190 ct 
1112 -190 1140 -157 1140 -91 ct 1140 -87 l  p
1108 -110 m  1106 -130 1101 -144 1093 -153 ct 1084 -163 1072 -167 1057 -167 ct 
1042 -167 1030 -162 1021 -152 ct 1012 -142 1008 -128 1007 -110 ct p ef
1273 -186 m  1273 -164 l  1211 -164 l  1211 0 l  1179 0 l  1179 -186 l 
p ef
1338 -186 m  1338 -84 l  1337 -37 l  1423 -186 l  1457 -186 l  1457 0 l 
1427 0 l  1427 -114 l  1427 -118 1427 -124 1428 -133 ct 1428 -141 1428 -147 1429 -150 ct 
1342 0 l  1308 0 l  1308 -186 l  p ef
1573 -79 m  1519 0 l  1484 0 l  1543 -81 l  1515 -87 1500 -105 1500 -135 ct 
1500 -152 1507 -165 1519 -174 ct 1531 -182 1549 -186 1573 -186 ct 1648 -186 l 
1648 0 l  1617 0 l  1617 -79 l  p
1617 -165 m  1576 -165 l  1561 -165 1550 -162 1544 -157 ct 1537 -151 1533 -143 1533 -133 ct 
1533 -122 1536 -114 1542 -109 ct 1549 -103 1559 -100 1573 -100 ct 1617 -100 l 
p ef
1784 0 m  1784 -22 l  1790 -35 1797 -47 1805 -57 ct 1814 -68 1823 -77 1832 -85 ct 
1841 -94 1850 -101 1860 -109 ct 1869 -116 1877 -123 1884 -130 ct 1892 -137 1898 -145 1902 -152 ct 
1907 -160 1909 -169 1909 -179 ct 1909 -192 1905 -203 1897 -210 ct 1889 -217 1878 -221 1865 -221 ct 
1851 -221 1840 -217 1832 -210 ct 1823 -203 1818 -193 1817 -180 ct 1785 -183 l 
1787 -202 1796 -218 1810 -229 ct 1824 -241 1842 -246 1865 -246 ct 1889 -246 1908 -241 1921 -229 ct 
1934 -218 1941 -201 1941 -180 ct 1941 -171 1939 -161 1934 -152 ct 1930 -143 1924 -133 1915 -124 ct 
1907 -115 1890 -100 1866 -81 ct 1853 -70 1843 -60 1835 -51 ct 1827 -43 1821 -34 1818 -26 ct 
1945 -26 l  1945 0 l  p ef
pom
pum
13811 5196 t
137 -220 m  110 -220 89 -211 74 -194 ct 59 -176 51 -153 51 -123 ct 51 -93 59 -69 75 -51 ct 
90 -33 111 -24 138 -24 ct 172 -24 197 -40 215 -74 ct 241 -61 l  231 -40 217 -24 199 -13 ct 
181 -2 160 3 136 3 ct 112 3 91 -2 73 -12 ct 55 -22 41 -37 32 -55 ct 23 -74 18 -97 18 -123 ct 
18 -161 28 -192 49 -214 ct 70 -236 99 -246 136 -246 ct 162 -246 184 -241 201 -231 ct 
218 -221 231 -206 239 -186 ct 208 -176 l  202 -190 193 -201 181 -208 ct 168 -216 154 -220 137 -220 ct 
p ef
260 -186 m  410 -186 l  410 -164 l  350 -164 l  350 0 l  319 0 l  319 -164 l 
260 -164 l  p ef
597 -94 m  597 -29 575 3 529 3 ct 500 3 481 -7 471 -29 ct 470 -29 l  471 -28 471 -18 471 0 ct 
471 73 l  440 73 l  440 -148 l  440 -168 439 -180 439 -186 ct 469 -186 l 
469 -186 469 -184 469 -182 ct 469 -179 470 -174 470 -169 ct 470 -163 470 -159 470 -157 ct 
471 -157 l  477 -168 484 -176 493 -182 ct 502 -187 514 -190 529 -190 ct 552 -190 569 -182 580 -167 ct 
592 -151 597 -127 597 -94 ct p
565 -93 m  565 -119 561 -138 554 -149 ct 547 -160 536 -166 521 -166 ct 509 -166 499 -163 492 -158 ct 
485 -153 480 -145 476 -134 ct 473 -123 471 -109 471 -91 ct 471 -67 475 -48 483 -37 ct 
490 -25 503 -19 521 -19 ct 536 -19 547 -25 554 -36 ct 561 -48 565 -67 565 -93 ct 
p ef
683 3 m  665 3 651 -1 641 -11 ct 632 -21 627 -35 627 -52 ct 627 -71 633 -86 646 -97 ct 
659 -107 679 -112 707 -113 ct 749 -114 l  749 -124 l  749 -139 746 -150 740 -157 ct 
733 -163 723 -166 709 -166 ct 695 -166 685 -164 679 -159 ct 673 -155 669 -147 668 -137 ct 
635 -140 l  641 -173 665 -190 710 -190 ct 734 -190 751 -185 763 -174 ct 775 -163 781 -148 781 -127 ct 
781 -47 l  781 -38 782 -31 784 -26 ct 787 -21 791 -19 798 -19 ct 801 -19 805 -20 808 -20 ct 
808 -1 l  801 1 793 2 784 2 ct 773 2 765 -1 759 -7 ct 754 -13 751 -23 750 -36 ct 
749 -36 l  741 -21 732 -11 722 -5 ct 711 0 698 3 683 3 ct p
690 -20 m  702 -20 712 -22 721 -28 ct 730 -33 737 -40 742 -49 ct 747 -58 749 -67 749 -77 ct 
749 -92 l  715 -91 l  701 -91 690 -90 682 -87 ct 675 -84 669 -80 665 -74 ct 
661 -68 659 -61 659 -52 ct 659 -41 662 -34 667 -28 ct 673 -23 680 -20 690 -20 ct 
p ef
807 -186 m  957 -186 l  957 -164 l  897 -164 l  897 0 l  866 0 l  866 -164 l 
807 -164 l  p ef
1007 -87 m  1007 -65 1011 -49 1020 -37 ct 1029 -26 1042 -20 1059 -20 ct 1072 -20 1083 -23 1091 -28 ct 
1099 -33 1105 -40 1107 -48 ct 1135 -41 l  1123 -11 1098 3 1059 3 ct 1031 3 1010 -5 996 -21 ct 
981 -38 974 -62 974 -94 ct 974 -125 981 -149 996 -165 ct 1010 -182 1031 -190 1057 -190 ct 
1112 -190 1140 -157 1140 -91 ct 1140 -87 l  p
1108 -110 m  1106 -130 1101 -144 1093 -153 ct 1084 -163 1072 -167 1057 -167 ct 
1042 -167 1030 -162 1021 -152 ct 1012 -142 1008 -128 1007 -110 ct p ef
1273 -186 m  1273 -164 l  1211 -164 l  1211 0 l  1179 0 l  1179 -186 l 
p ef
1338 -186 m  1338 -84 l  1337 -37 l  1423 -186 l  1457 -186 l  1457 0 l 
1427 0 l  1427 -114 l  1427 -118 1427 -124 1428 -133 ct 1428 -141 1428 -147 1429 -150 ct 
1342 0 l  1308 0 l  1308 -186 l  p ef
1573 -79 m  1519 0 l  1484 0 l  1543 -81 l  1515 -87 1500 -105 1500 -135 ct 
1500 -152 1507 -165 1519 -174 ct 1531 -182 1549 -186 1573 -186 ct 1648 -186 l 
1648 0 l  1617 0 l  1617 -79 l  p
1617 -165 m  1576 -165 l  1561 -165 1550 -162 1544 -157 ct 1537 -151 1533 -143 1533 -133 ct 
1533 -122 1536 -114 1542 -109 ct 1549 -103 1559 -100 1573 -100 ct 1617 -100 l 
p ef
1947 -67 m  1947 -45 1940 -27 1925 -15 ct 1911 -3 1891 3 1864 3 ct 1840 3 1820 -2 1806 -13 ct 
1791 -24 1782 -41 1779 -62 ct 1812 -65 l  1816 -37 1833 -22 1864 -22 ct 1880 -22 1892 -26 1901 -34 ct 
1910 -41 1915 -53 1915 -68 ct 1915 -81 1909 -92 1899 -99 ct 1889 -106 1874 -110 1855 -110 ct 
1838 -110 l  1838 -137 l  1855 -137 l  1872 -137 1885 -141 1894 -148 ct 1904 -156 1908 -166 1908 -179 ct 
1908 -192 1904 -202 1897 -210 ct 1889 -217 1878 -221 1863 -221 ct 1849 -221 1838 -217 1830 -210 ct 
1821 -203 1816 -194 1815 -181 ct 1784 -183 l  1786 -203 1794 -219 1808 -230 ct 
1823 -241 1841 -246 1863 -246 ct 1887 -246 1906 -241 1920 -230 ct 1933 -218 1940 -202 1940 -182 ct 
1940 -167 1936 -154 1927 -144 ct 1918 -135 1906 -128 1889 -125 ct 1889 -124 l 
1907 -122 1922 -116 1932 -106 ct 1942 -95 1947 -83 1947 -67 ct p ef
pom
pum
4195 8468 t
26 -219 m  56 -219 l  56 -123 l  64 -123 70 -124 74 -126 ct 79 -128 84 -132 89 -138 ct 
94 -143 102 -155 113 -171 ct 145 -219 l  176 -219 l  132 -155 l  119 -136 109 -124 104 -120 ct 
183 0 l  149 0 l  83 -106 l  80 -105 76 -104 70 -102 ct 65 -101 60 -100 56 -100 ct 
56 0 l  26 0 l  p ef
349 -84 m  349 -55 342 -33 329 -18 ct 316 -4 297 3 273 3 ct 248 3 230 -4 217 -19 ct 
205 -34 198 -56 198 -84 ct 198 -142 223 -171 274 -171 ct 299 -171 318 -164 330 -150 ct 
342 -136 349 -114 349 -84 ct p
319 -84 m  319 -107 316 -124 309 -135 ct 302 -145 290 -150 274 -150 ct 258 -150 246 -145 239 -134 ct 
231 -124 228 -107 228 -84 ct 228 -62 231 -45 238 -34 ct 246 -23 257 -18 272 -18 ct 
289 -18 301 -23 308 -34 ct 316 -44 319 -61 319 -84 ct p ef
490 0 m  490 -148 l  432 -148 l  426 -103 421 -72 418 -56 ct 415 -41 411 -29 407 -20 ct 
403 -12 399 -6 393 -3 ct 387 1 380 3 371 3 ct 366 3 361 2 357 1 ct 357 -19 l  359 -18 363 -18 367 -18 ct 
373 -18 378 -20 381 -26 ct 384 -32 388 -42 390 -56 ct 393 -70 397 -90 400 -118 ct 
407 -168 l  519 -168 l  519 0 l  p ef
589 -168 m  589 -76 l  588 -33 l  665 -168 l  696 -168 l  696 0 l  669 0 l 
669 -102 l  669 -106 669 -112 669 -119 ct 670 -127 670 -132 670 -136 ct 592 0 l 
562 0 l  562 -168 l  p ef
765 -168 m  765 -106 l  765 -89 773 -80 791 -80 ct 802 -80 816 -83 834 -88 ct 
834 -168 l  861 -168 l  861 0 l  834 0 l  834 -72 l  821 -67 l  806 -61 792 -58 779 -58 ct 
766 -58 755 -62 748 -70 ct 741 -78 737 -90 737 -104 ct 737 -168 l  p ef
926 -78 m  926 -59 930 -44 938 -34 ct 946 -23 957 -18 973 -18 ct 985 -18 995 -20 1002 -25 ct 
1009 -30 1014 -36 1017 -44 ct 1041 -37 l  1031 -10 1008 3 973 3 ct 948 3 929 -4 916 -19 ct 
903 -34 897 -56 897 -85 ct 897 -113 903 -134 916 -149 ct 929 -164 948 -171 972 -171 ct 
1021 -171 1046 -141 1046 -82 ct 1046 -78 l  p
1017 -100 m  1015 -117 1011 -130 1003 -138 ct 996 -146 985 -150 971 -150 ct 
958 -150 947 -146 939 -137 ct 931 -128 927 -115 926 -100 ct p ef
1103 -85 m  1103 -62 1106 -46 1113 -35 ct 1120 -24 1131 -19 1145 -19 ct 1155 -19 1163 -22 1170 -27 ct 
1177 -32 1181 -41 1182 -52 ct 1211 -50 l  1208 -34 1202 -21 1190 -11 ct 1178 -2 1164 3 1146 3 ct 
1122 3 1104 -4 1092 -19 ct 1080 -34 1074 -56 1074 -84 ct 1074 -112 1080 -134 1092 -149 ct 
1105 -164 1122 -171 1146 -171 ct 1163 -171 1177 -167 1188 -158 ct 1200 -149 1207 -137 1210 -121 ct 
1181 -119 l  1180 -128 1176 -136 1170 -141 ct 1164 -146 1156 -149 1145 -149 ct 
1130 -149 1119 -144 1113 -134 ct 1106 -125 1103 -108 1103 -85 ct p ef
1224 -168 m  1359 -168 l  1359 -148 l  1306 -148 l  1306 0 l  1278 0 l 
1278 -148 l  1224 -148 l  p ef
1453 -168 m  1473 -168 1489 -164 1499 -157 ct 1510 -150 1515 -139 1515 -126 ct 
1515 -116 1512 -108 1506 -102 ct 1500 -95 1491 -91 1480 -89 ct 1480 -88 l  1493 -86 1503 -82 1510 -75 ct 
1517 -68 1520 -60 1520 -48 ct 1520 -33 1514 -21 1503 -13 ct 1492 -4 1476 0 1456 0 ct 
1387 0 l  1387 -168 l  p
1415 -21 m  1452 -21 l  1466 -21 1476 -23 1482 -27 ct 1488 -32 1490 -39 1490 -48 ct 
1490 -59 1487 -66 1481 -70 ct 1475 -75 1465 -77 1450 -77 ct 1415 -77 l  p
1415 -147 m  1415 -97 l  1449 -97 l  1462 -97 1471 -99 1477 -103 ct 1483 -106 1485 -113 1485 -122 ct 
1485 -131 1483 -137 1477 -141 ct 1472 -145 1463 -147 1451 -147 ct p ef
1694 -84 m  1694 -55 1687 -33 1674 -18 ct 1661 -4 1642 3 1618 3 ct 1593 3 1575 -4 1562 -19 ct 
1550 -34 1543 -56 1543 -84 ct 1543 -142 1568 -171 1619 -171 ct 1644 -171 1663 -164 1675 -150 ct 
1687 -136 1694 -114 1694 -84 ct p
1664 -84 m  1664 -107 1661 -124 1654 -135 ct 1647 -145 1635 -150 1619 -150 ct 
1603 -150 1591 -145 1584 -134 ct 1576 -124 1573 -107 1573 -84 ct 1573 -62 1576 -45 1583 -34 ct 
1591 -23 1602 -18 1617 -18 ct 1634 -18 1646 -23 1653 -34 ct 1661 -44 1664 -61 1664 -84 ct 
p ef
1878 -168 m  1898 -168 1914 -164 1924 -157 ct 1935 -150 1940 -139 1940 -126 ct 
1940 -116 1937 -108 1931 -102 ct 1925 -95 1916 -91 1905 -89 ct 1905 -88 l  1918 -86 1928 -82 1935 -75 ct 
1942 -68 1945 -60 1945 -48 ct 1945 -33 1939 -21 1928 -13 ct 1917 -4 1901 0 1881 0 ct 
1812 0 l  1812 -168 l  p
1840 -21 m  1877 -21 l  1891 -21 1901 -23 1907 -27 ct 1913 -32 1915 -39 1915 -48 ct 
1915 -59 1912 -66 1906 -70 ct 1900 -75 1890 -77 1875 -77 ct 1840 -77 l  p
1840 -147 m  1840 -97 l  1874 -97 l  1887 -97 1896 -99 1902 -103 ct 1908 -106 1910 -113 1910 -122 ct 
1910 -131 1908 -137 1902 -141 ct 1897 -145 1888 -147 1876 -147 ct p ef
2044 -97 m  2066 -97 2082 -93 2093 -85 ct 2103 -78 2109 -66 2109 -49 ct 2109 -33 2103 -21 2092 -13 ct 
2081 -4 2065 0 2045 0 ct 1981 0 l  1981 -168 l  2009 -168 l  2009 -97 l  p
2009 -20 m  2040 -20 l  2054 -20 2064 -22 2070 -27 ct 2076 -32 2079 -39 2079 -49 ct 
2079 -59 2076 -66 2070 -71 ct 2064 -75 2054 -77 2041 -77 ct 2009 -77 l  p
2138 0 m  2138 -168 l  2166 -168 l  2166 0 l  p ef
2234 -168 m  2234 -106 l  2234 -89 2242 -80 2260 -80 ct 2271 -80 2285 -83 2303 -88 ct 
2303 -168 l  2330 -168 l  2330 0 l  2303 0 l  2303 -72 l  2290 -67 l  2275 -61 2261 -58 2248 -58 ct 
2235 -58 2224 -62 2217 -70 ct 2210 -78 2206 -90 2206 -104 ct 2206 -168 l  p ef
2402 -168 m  2402 -76 l  2401 -33 l  2478 -168 l  2509 -168 l  2509 0 l 
2482 0 l  2482 -102 l  2482 -106 2482 -112 2482 -119 ct 2483 -127 2483 -132 2483 -136 ct 
2405 0 l  2375 0 l  2375 -168 l  p ef
2574 -85 m  2574 -62 2577 -46 2584 -35 ct 2591 -24 2602 -19 2616 -19 ct 2626 -19 2634 -22 2641 -27 ct 
2648 -32 2652 -41 2653 -52 ct 2682 -50 l  2679 -34 2673 -21 2661 -11 ct 2649 -2 2635 3 2617 3 ct 
2593 3 2575 -4 2563 -19 ct 2551 -34 2545 -56 2545 -84 ct 2545 -112 2551 -134 2563 -149 ct 
2576 -164 2593 -171 2617 -171 ct 2634 -171 2648 -167 2659 -158 ct 2671 -149 2678 -137 2681 -121 ct 
2652 -119 l  2651 -128 2647 -136 2641 -141 ct 2635 -146 2627 -149 2616 -149 ct 
2601 -149 2590 -144 2584 -134 ct 2577 -125 2574 -108 2574 -85 ct p ef
2825 0 m  2825 -148 l  2767 -148 l  2761 -103 2756 -72 2753 -56 ct 2750 -41 2746 -29 2742 -20 ct 
2738 -12 2734 -6 2728 -3 ct 2722 1 2715 3 2706 3 ct 2701 3 2696 2 2692 1 ct 2692 -19 l 
2694 -18 2698 -18 2702 -18 ct 2708 -18 2713 -20 2716 -26 ct 2719 -32 2723 -42 2725 -56 ct 
2728 -70 2732 -90 2735 -118 ct 2742 -168 l  2854 -168 l  2854 0 l  p ef
2924 -168 m  2924 -76 l  2923 -33 l  3000 -168 l  3031 -168 l  3031 0 l 
3004 0 l  3004 -102 l  3004 -106 3004 -112 3004 -119 ct 3005 -127 3005 -132 3005 -136 ct 
2927 0 l  2897 0 l  2897 -168 l  p ef
3058 -168 m  3193 -168 l  3193 -148 l  3140 -148 l  3140 0 l  3112 0 l 
3112 -148 l  3058 -148 l  p ef
3238 -78 m  3238 -59 3242 -44 3250 -34 ct 3258 -23 3269 -18 3285 -18 ct 3297 -18 3307 -20 3314 -25 ct 
3321 -30 3326 -36 3329 -44 ct 3353 -37 l  3343 -10 3320 3 3285 3 ct 3260 3 3241 -4 3228 -19 ct 
3215 -34 3209 -56 3209 -85 ct 3209 -113 3215 -134 3228 -149 ct 3241 -164 3260 -171 3284 -171 ct 
3333 -171 3358 -141 3358 -82 ct 3358 -78 l  p
3329 -100 m  3327 -117 3323 -130 3315 -138 ct 3308 -146 3297 -150 3283 -150 ct 
3270 -150 3259 -146 3251 -137 ct 3243 -128 3239 -115 3238 -100 ct p ef
3496 0 m  3496 -148 l  3438 -148 l  3432 -103 3427 -72 3424 -56 ct 3421 -41 3417 -29 3413 -20 ct 
3409 -12 3405 -6 3399 -3 ct 3393 1 3386 3 3377 3 ct 3372 3 3367 2 3363 1 ct 3363 -19 l 
3365 -18 3369 -18 3373 -18 ct 3379 -18 3384 -20 3387 -26 ct 3390 -32 3394 -42 3396 -56 ct 
3399 -70 3403 -90 3406 -118 ct 3413 -168 l  3525 -168 l  3525 0 l  p ef
3635 -97 m  3656 -97 3672 -93 3683 -85 ct 3694 -78 3700 -66 3700 -49 ct 3700 -33 3694 -21 3683 -13 ct 
3672 -4 3656 0 3635 0 ct 3569 0 l  3569 -168 l  3597 -168 l  3597 -97 l  p
3597 -20 m  3631 -20 l  3645 -20 3654 -22 3661 -27 ct 3667 -32 3670 -39 3670 -49 ct 
3670 -59 3667 -66 3661 -71 ct 3655 -75 3645 -77 3631 -77 ct 3597 -77 l  p ef
3762 -168 m  3762 -97 l  3838 -97 l  3838 -168 l  3866 -168 l  3866 0 l 
3838 0 l  3838 -77 l  3762 -77 l  3762 0 l  3734 0 l  3734 -168 l  p ef
3973 -97 m  3995 -97 4011 -93 4022 -85 ct 4032 -78 4038 -66 4038 -49 ct 4038 -33 4032 -21 4021 -13 ct 
4010 -4 3994 0 3974 0 ct 3910 0 l  3910 -168 l  3938 -168 l  3938 -97 l  p
3938 -20 m  3969 -20 l  3983 -20 3993 -22 3999 -27 ct 4005 -32 4008 -39 4008 -49 ct 
4008 -59 4005 -66 3999 -71 ct 3993 -75 3983 -77 3970 -77 ct 3938 -77 l  p
4067 0 m  4067 -168 l  4095 -168 l  4095 0 l  p ef
4241 0 m  4196 -69 l  4151 0 l  4121 0 l  4180 -86 l  4123 -168 l  4154 -168 l 
4196 -103 l  4238 -168 l  4269 -168 l  4212 -87 l  4273 0 l  p ef
4388 66 m  4380 66 4374 65 4368 64 ct 4368 43 l  4372 44 4377 44 4381 44 ct 
4399 44 4413 31 4423 6 ct 4425 -1 l  4359 -168 l  4389 -168 l  4424 -75 l 
4425 -74 4425 -72 4426 -70 ct 4427 -68 4429 -61 4433 -50 ct 4437 -38 4439 -32 4439 -30 ct 
4450 -61 l  4487 -168 l  4516 -168 l  4452 0 l  4445 18 4438 31 4432 40 ct 
4426 49 4420 55 4412 60 ct 4405 64 4397 66 4388 66 ct p ef
4588 3 m  4571 3 4557 0 4547 -7 ct 4537 -13 4529 -23 4525 -36 ct 4549 -43 l 
4555 -26 4568 -18 4589 -18 ct 4599 -18 4607 -20 4612 -25 ct 4618 -30 4621 -37 4621 -46 ct 
4621 -67 4604 -77 4570 -77 ct 4570 -99 l  4586 -99 4599 -101 4607 -105 ct 4614 -110 4618 -116 4618 -125 ct 
4618 -133 4616 -139 4611 -144 ct 4606 -148 4598 -150 4589 -150 ct 4579 -150 4572 -148 4566 -145 ct 
4560 -141 4557 -135 4555 -128 ct 4530 -131 l  4535 -158 4554 -171 4589 -171 ct 
4606 -171 4620 -167 4631 -159 ct 4641 -151 4647 -140 4647 -127 ct 4647 -116 4643 -108 4636 -101 ct 
4628 -94 4619 -90 4608 -89 ct 4608 -88 l  4621 -87 4631 -83 4639 -75 ct 4647 -68 4651 -58 4651 -47 ct 
4651 -31 4645 -19 4634 -10 ct 4623 -1 4608 3 4588 3 ct p ef
4795 0 m  4795 -148 l  4737 -148 l  4731 -103 4726 -72 4723 -56 ct 4720 -41 4716 -29 4712 -20 ct 
4708 -12 4704 -6 4698 -3 ct 4692 1 4685 3 4676 3 ct 4671 3 4666 2 4662 1 ct 4662 -19 l 
4664 -18 4668 -18 4672 -18 ct 4678 -18 4683 -20 4686 -26 ct 4689 -32 4693 -42 4695 -56 ct 
4698 -70 4702 -90 4705 -118 ct 4712 -168 l  4824 -168 l  4824 0 l  p ef
5013 -84 m  5013 -55 5006 -33 4993 -18 ct 4980 -4 4961 3 4937 3 ct 4912 3 4894 -4 4881 -19 ct 
4869 -34 4862 -56 4862 -84 ct 4862 -142 4887 -171 4938 -171 ct 4963 -171 4982 -164 4994 -150 ct 
5006 -136 5013 -114 5013 -84 ct p
4983 -84 m  4983 -107 4980 -124 4973 -135 ct 4966 -145 4954 -150 4938 -150 ct 
4922 -150 4910 -145 4903 -134 ct 4895 -124 4892 -107 4892 -84 ct 4892 -62 4895 -45 4902 -34 ct 
4910 -23 4921 -18 4936 -18 ct 4953 -18 4965 -23 4972 -34 ct 4980 -44 4983 -61 4983 -84 ct 
p ef
5114 -168 m  5134 -168 5150 -164 5160 -157 ct 5171 -150 5176 -139 5176 -126 ct 
5176 -116 5173 -108 5167 -102 ct 5161 -95 5152 -91 5141 -89 ct 5141 -88 l  5154 -86 5164 -82 5171 -75 ct 
5178 -68 5181 -60 5181 -48 ct 5181 -33 5175 -21 5164 -13 ct 5153 -4 5137 0 5117 0 ct 
5048 0 l  5048 -168 l  p
5076 -21 m  5113 -21 l  5127 -21 5137 -23 5143 -27 ct 5149 -32 5151 -39 5151 -48 ct 
5151 -59 5148 -66 5142 -70 ct 5136 -75 5126 -77 5111 -77 ct 5076 -77 l  p
5076 -147 m  5076 -97 l  5110 -97 l  5123 -97 5132 -99 5138 -103 ct 5144 -106 5146 -113 5146 -122 ct 
5146 -131 5144 -137 5138 -141 ct 5133 -145 5124 -147 5112 -147 ct p ef
pom
pum
945 4908 t
90.0 r 195 -62 m  195 -42 188 -27 174 -16 ct 160 -5 140 0 115 0 ct 26 0 l  26 -219 l 
106 -219 l  157 -219 183 -201 183 -166 ct 183 -153 179 -142 172 -133 ct 164 -124 154 -118 141 -115 ct 
158 -113 172 -107 181 -98 ct 191 -88 195 -76 195 -62 ct p
153 -162 m  153 -174 149 -182 141 -187 ct 133 -192 121 -195 106 -195 ct 56 -195 l 
56 -126 l  106 -126 l  121 -126 133 -129 141 -135 ct 149 -141 153 -150 153 -162 ct 
p
165 -64 m  165 -90 147 -103 111 -103 ct 56 -103 l  56 -24 l  113 -24 l  131 -24 145 -27 153 -34 ct 
161 -41 165 -51 165 -64 ct p ef
373 -85 m  373 -26 352 3 311 3 ct 285 3 267 -7 259 -26 ct 258 -26 l  258 -25 258 -16 258 0 ct 
258 66 l  230 66 l  230 -134 l  230 -151 230 -162 229 -168 ct 257 -168 l 
257 -168 257 -166 257 -164 ct 257 -161 257 -157 258 -152 ct 258 -147 258 -143 258 -141 ct 
259 -141 l  264 -151 270 -159 278 -164 ct 287 -169 297 -171 311 -171 ct 331 -171 347 -164 357 -150 ct 
367 -136 373 -114 373 -85 ct p
343 -84 m  343 -108 340 -124 334 -134 ct 327 -144 317 -149 304 -149 ct 292 -149 284 -147 278 -142 ct 
271 -138 267 -130 263 -121 ct 260 -111 258 -98 258 -82 ct 258 -60 262 -44 269 -33 ct 
276 -23 287 -18 303 -18 ct 317 -18 327 -23 334 -33 ct 340 -43 343 -60 343 -84 ct 
p ef
427 -78 m  427 -59 431 -44 439 -34 ct 447 -23 458 -18 474 -18 ct 486 -18 496 -20 503 -25 ct 
510 -30 515 -36 518 -44 ct 542 -37 l  532 -10 509 3 474 3 ct 449 3 430 -4 417 -19 ct 
404 -34 398 -56 398 -85 ct 398 -113 404 -134 417 -149 ct 430 -164 449 -171 473 -171 ct 
522 -171 547 -141 547 -82 ct 547 -78 l  p
518 -100 m  516 -117 512 -130 504 -138 ct 497 -146 486 -150 472 -150 ct 459 -150 448 -146 440 -137 ct 
432 -128 428 -115 427 -100 ct p ef
680 0 m  656 0 l  606 -148 l  607 -132 607 -120 607 -112 ct 607 0 l  580 0 l 
580 -168 l  624 -168 l  658 -65 l  663 -51 667 -36 668 -21 ct 671 -38 674 -52 679 -65 ct 
713 -168 l  755 -168 l  755 0 l  728 0 l  728 -112 l  728 -130 l  729 -148 l 
p ef
857 -71 m  808 0 l  777 0 l  830 -73 l  804 -78 791 -95 791 -122 ct 791 -137 797 -149 808 -156 ct 
819 -164 836 -168 857 -168 ct 924 -168 l  924 0 l  896 0 l  896 -71 l  p
896 -148 m  860 -148 l  846 -148 837 -146 830 -141 ct 824 -136 821 -129 821 -120 ct 
821 -110 824 -103 829 -98 ct 835 -93 844 -91 857 -91 ct 896 -91 l  p ef
pom
gr
gs
0 0 m 16509 0 l 16509 9397 l 0 9397 l 0 0 l eoclip newpath
gr
gr
0 9398 t 
pom
count op_count sub {pop} repeat countdictstack dict_count sub {end} repeat b4_inc_state restore
%%PageTrailer
%%Trailer
%%EOF
